ISO-10303-21;
HEADER;
/****************************************************************
 * Generated by software with PDElib inside                    *
 * PDElib Version v51a, created Wed 11/30/2011                  *
 * ITI Transcendata (http://www.transcendata.com/)              *
 ****************************************************************/
FILE_DESCRIPTION((''),'2;1');
FILE_NAME('\\\\rfa01.research.partners.org\\MGH-EskandarLab\\Lab\\Hardware\\Multidrive\\v1.1\\Step\\catch.stp','2012-07-23T11:34:20',('xenu'),(''),'Autodesk Inventor 2013','Autodesk Inventor 2013','');
FILE_SCHEMA(('AUTOMOTIVE_DESIGN { 1 0 10303 214 1 1 1 1 }'));
ENDSEC;
DATA;
#5=APPLICATION_CONTEXT('automotive design');
#6=APPLICATION_PROTOCOL_DEFINITION('International Standard','automotive_design',2001,#5);
#7=PRODUCT_CONTEXT('',#5,'mechanical');
#8=PRODUCT('catch','catch',$,(#7));
#9=PRODUCT_RELATED_PRODUCT_CATEGORY('part',$,(#8));
#10=PRODUCT_DEFINITION_FORMATION('',$,#8);
#11=PRODUCT_DEFINITION_CONTEXT('part definition',#5,'design');
#12=PRODUCT_DEFINITION('',$,#10,#11);
#18=(NAMED_UNIT(*)PLANE_ANGLE_UNIT()SI_UNIT($,.RADIAN.));
#19=DIMENSIONAL_EXPONENTS(0.0,0.0,0.0,0.0,0.0,0.0,0.0);
#20=PLANE_ANGLE_MEASURE_WITH_UNIT(PLANE_ANGLE_MEASURE(0.0174532925),#18);
#24=(CONVERSION_BASED_UNIT('DEGREE',#20)NAMED_UNIT(#19)PLANE_ANGLE_UNIT());
#28=(NAMED_UNIT(*)SI_UNIT($,.STERADIAN.)SOLID_ANGLE_UNIT());
#32=(LENGTH_UNIT()NAMED_UNIT(*)SI_UNIT(.MILLI.,.METRE.));
#34=UNCERTAINTY_MEASURE_WITH_UNIT(LENGTH_MEASURE(0.01),#32,'DISTANCE_ACCURACY_VALUE','');
#36=(GEOMETRIC_REPRESENTATION_CONTEXT(3)GLOBAL_UNCERTAINTY_ASSIGNED_CONTEXT((#34))GLOBAL_UNIT_ASSIGNED_CONTEXT((#24,#28,#32))REPRESENTATION_CONTEXT('None','None'));
#37=AXIS2_PLACEMENT_3D('',#38,#39,#40);
#38=CARTESIAN_POINT('',(0.0,0.0,0.0));
#39=DIRECTION('',(0.0,0.0,1.0));
#40=DIRECTION('',(1.0,0.0,0.0));
#41=SHAPE_REPRESENTATION('',(#37),#36);
#42=PRODUCT_DEFINITION_SHAPE('','',#12);
#43=SHAPE_DEFINITION_REPRESENTATION(#42,#41);
#49=(NAMED_UNIT(*)PLANE_ANGLE_UNIT()SI_UNIT($,.RADIAN.));
#50=DIMENSIONAL_EXPONENTS(0.0,0.0,0.0,0.0,0.0,0.0,0.0);
#51=PLANE_ANGLE_MEASURE_WITH_UNIT(PLANE_ANGLE_MEASURE(0.0174532925),#49);
#55=(CONVERSION_BASED_UNIT('DEGREE',#51)NAMED_UNIT(#50)PLANE_ANGLE_UNIT());
#59=(NAMED_UNIT(*)SI_UNIT($,.STERADIAN.)SOLID_ANGLE_UNIT());
#63=(LENGTH_UNIT()NAMED_UNIT(*)SI_UNIT(.MILLI.,.METRE.));
#65=UNCERTAINTY_MEASURE_WITH_UNIT(LENGTH_MEASURE(0.000001),#63,'DISTANCE_ACCURACY_VALUE','');
#67=(GEOMETRIC_REPRESENTATION_CONTEXT(3)GLOBAL_UNCERTAINTY_ASSIGNED_CONTEXT((#65))GLOBAL_UNIT_ASSIGNED_CONTEXT((#55,#59,#63))REPRESENTATION_CONTEXT('','3D'));
#68=CARTESIAN_POINT('',(-1.387779E-016,2.0,0.013916127274946));
#69=DIRECTION('',(1.0,0.0,0.0));
#70=DIRECTION('',(0.0,0.0,-1.0));
#71=AXIS2_PLACEMENT_3D('',#68,#69,#70);
#72=PLANE('',#71);
#73=CARTESIAN_POINT('',(0.0,0.999999999999999,-0.25));
#74=VERTEX_POINT('',#73);
#75=CARTESIAN_POINT('',(0.0,3.0,-0.25));
#76=VERTEX_POINT('',#75);
#77=CARTESIAN_POINT('',(-1.387779E-016,1.0,-0.25));
#78=DIRECTION('',(0.0,1.0,0.0));
#79=VECTOR('',#78,2.000000000000001);
#80=LINE('',#77,#79);
#81=EDGE_CURVE('',#74,#76,#80,.T.);
#82=ORIENTED_EDGE('',*,*,#81,.F.);
#83=CARTESIAN_POINT('',(-1.387779E-016,1.0,-0.486083872725055));
#84=VERTEX_POINT('',#83);
#85=CARTESIAN_POINT('',(0.0,1.0,-0.25));
#86=DIRECTION('',(0.0,0.0,-1.0));
#87=VECTOR('',#86,0.236083872725055);
#88=LINE('',#85,#87);
#89=EDGE_CURVE('',#74,#84,#88,.T.);
#90=ORIENTED_EDGE('',*,*,#89,.T.);
#91=CARTESIAN_POINT('',(-1.387779E-016,3.0,-0.486083872725054));
#92=VERTEX_POINT('',#91);
#93=CARTESIAN_POINT('',(0.0,1.0,-0.486083872725055));
#94=DIRECTION('',(0.0,1.0,0.0));
#95=VECTOR('',#94,2.0);
#96=LINE('',#93,#95);
#97=EDGE_CURVE('',#84,#92,#96,.T.);
#98=ORIENTED_EDGE('',*,*,#97,.T.);
#99=CARTESIAN_POINT('',(0.0,3.0,-0.486083872725054));
#100=DIRECTION('',(0.0,0.0,1.0));
#101=VECTOR('',#100,0.236083872725054);
#102=LINE('',#99,#101);
#103=EDGE_CURVE('',#92,#76,#102,.T.);
#104=ORIENTED_EDGE('',*,*,#103,.T.);
#105=EDGE_LOOP('',(#82,#90,#98,#104));
#106=FACE_OUTER_BOUND('',#105,.T.);
#107=ADVANCED_FACE('',(#106),#72,.T.);
#108=CARTESIAN_POINT('',(-1.387779E-016,2.0,0.013916127274946));
#109=DIRECTION('',(1.0,0.0,0.0));
#110=DIRECTION('',(0.0,0.0,-1.0));
#111=AXIS2_PLACEMENT_3D('',#108,#109,#110);
#112=PLANE('',#111);
#113=CARTESIAN_POINT('',(0.0,3.0,0.25));
#114=VERTEX_POINT('',#113);
#115=CARTESIAN_POINT('',(0.0,0.999999999999999,0.25));
#116=VERTEX_POINT('',#115);
#117=CARTESIAN_POINT('',(-1.387779E-016,3.000000000000001,0.25));
#118=DIRECTION('',(0.0,-1.0,0.0));
#119=VECTOR('',#118,2.000000000000001);
#120=LINE('',#117,#119);
#121=EDGE_CURVE('',#114,#116,#120,.T.);
#122=ORIENTED_EDGE('',*,*,#121,.F.);
#123=CARTESIAN_POINT('',(-1.387779E-016,3.000000000000001,0.513916127274946));
#124=VERTEX_POINT('',#123);
#125=CARTESIAN_POINT('',(0.0,3.000000000000001,0.25));
#126=DIRECTION('',(0.0,0.0,1.0));
#127=VECTOR('',#126,0.263916127274946);
#128=LINE('',#125,#127);
#129=EDGE_CURVE('',#114,#124,#128,.T.);
#130=ORIENTED_EDGE('',*,*,#129,.T.);
#131=CARTESIAN_POINT('',(-1.387779E-016,1.0,0.513916127274945));
#132=VERTEX_POINT('',#131);
#133=CARTESIAN_POINT('',(0.0,3.000000000000001,0.513916127274946));
#134=DIRECTION('',(0.0,-1.0,0.0));
#135=VECTOR('',#134,2.000000000000001);
#136=LINE('',#133,#135);
#137=EDGE_CURVE('',#124,#132,#136,.T.);
#138=ORIENTED_EDGE('',*,*,#137,.T.);
#139=CARTESIAN_POINT('',(0.0,1.0,0.513916127274945));
#140=DIRECTION('',(0.0,0.0,-1.0));
#141=VECTOR('',#140,0.263916127274945);
#142=LINE('',#139,#141);
#143=EDGE_CURVE('',#132,#116,#142,.T.);
#144=ORIENTED_EDGE('',*,*,#143,.T.);
#145=EDGE_LOOP('',(#122,#130,#138,#144));
#146=FACE_OUTER_BOUND('',#145,.T.);
#147=ADVANCED_FACE('',(#146),#112,.T.);
#148=CARTESIAN_POINT('',(1.0,3.0,-0.486083872725054));
#149=DIRECTION('',(0.0,0.0,-1.0));
#150=DIRECTION('',(-1.0,0.0,0.0));
#151=AXIS2_PLACEMENT_3D('',#148,#149,#150);
#152=PLANE('',#151);
#153=CARTESIAN_POINT('',(1.419056894094319,3.0,-0.486083872725054));
#154=VERTEX_POINT('',#153);
#155=CARTESIAN_POINT('',(1.419056894094319,1.0,-0.486083872725055));
#156=VERTEX_POINT('',#155);
#157=CARTESIAN_POINT('',(1.419056894094318,3.0,-0.486083872725055));
#158=DIRECTION('',(0.0,-1.0,0.0));
#159=VECTOR('',#158,2.0);
#160=LINE('',#157,#159);
#161=EDGE_CURVE('',#154,#156,#160,.T.);
#162=ORIENTED_EDGE('',*,*,#161,.F.);
#163=CARTESIAN_POINT('',(-2.220446E-016,3.0,-0.486083872725054));
#164=DIRECTION('',(1.0,0.0,0.0));
#165=VECTOR('',#164,1.419056894094319);
#166=LINE('',#163,#165);
#167=EDGE_CURVE('',#92,#154,#166,.T.);
#168=ORIENTED_EDGE('',*,*,#167,.F.);
#169=ORIENTED_EDGE('',*,*,#97,.F.);
#170=CARTESIAN_POINT('',(1.419056894094319,1.0,-0.486083872725055));
#171=DIRECTION('',(-1.0,0.0,0.0));
#172=VECTOR('',#171,1.419056894094319);
#173=LINE('',#170,#172);
#174=EDGE_CURVE('',#156,#84,#173,.T.);
#175=ORIENTED_EDGE('',*,*,#174,.F.);
#176=EDGE_LOOP('',(#162,#168,#169,#175));
#177=FACE_OUTER_BOUND('',#176,.T.);
#178=ADVANCED_FACE('',(#177),#152,.F.);
#179=CARTESIAN_POINT('',(1.0,1.0,-0.486083872725055));
#180=DIRECTION('',(0.0,-1.0,0.0));
#181=DIRECTION('',(0.0,0.0,-1.0));
#182=AXIS2_PLACEMENT_3D('',#179,#180,#181);
#183=PLANE('',#182);
#184=CARTESIAN_POINT('',(0.0,1.0,0.0));
#185=DIRECTION('',(0.0,1.0,0.0));
#186=DIRECTION('',(1.0,0.0,0.0));
#187=AXIS2_PLACEMENT_3D('',#184,#185,#186);
#188=CIRCLE('',#187,0.25);
#189=EDGE_CURVE('',#116,#74,#188,.T.);
#190=ORIENTED_EDGE('',*,*,#189,.F.);
#191=ORIENTED_EDGE('',*,*,#143,.F.);
#192=CARTESIAN_POINT('',(1.40921617011966,1.0,0.513916127274945));
#193=VERTEX_POINT('',#192);
#194=CARTESIAN_POINT('',(1.40921617011966,1.0,0.513916127274945));
#195=DIRECTION('',(-1.0,0.0,0.0));
#196=VECTOR('',#195,1.40921617011966);
#197=LINE('',#194,#196);
#198=EDGE_CURVE('',#193,#132,#197,.T.);
#199=ORIENTED_EDGE('',*,*,#198,.F.);
#200=CARTESIAN_POINT('',(0.0,1.0,0.0));
#201=DIRECTION('',(0.0,-1.0,0.0));
#202=DIRECTION('',(1.0,0.0,0.0));
#203=AXIS2_PLACEMENT_3D('',#200,#201,#202);
#204=CIRCLE('',#203,1.5);
#205=EDGE_CURVE('',#156,#193,#204,.T.);
#206=ORIENTED_EDGE('',*,*,#205,.F.);
#207=ORIENTED_EDGE('',*,*,#174,.T.);
#208=ORIENTED_EDGE('',*,*,#89,.F.);
#209=EDGE_LOOP('',(#190,#191,#199,#206,#207,#208));
#210=FACE_OUTER_BOUND('',#209,.T.);
#211=ADVANCED_FACE('',(#210),#183,.F.);
#212=CARTESIAN_POINT('',(1.0,1.0,0.513916127274945));
#213=DIRECTION('',(0.0,0.0,1.0));
#214=DIRECTION('',(1.0,0.0,0.0));
#215=AXIS2_PLACEMENT_3D('',#212,#213,#214);
#216=PLANE('',#215);
#217=CARTESIAN_POINT('',(1.40921617011966,3.000000000000001,0.513916127274946));
#218=VERTEX_POINT('',#217);
#219=CARTESIAN_POINT('',(1.40921617011966,1.0,0.513916127274945));
#220=DIRECTION('',(0.0,1.0,0.0));
#221=VECTOR('',#220,2.000000000000001);
#222=LINE('',#219,#221);
#223=EDGE_CURVE('',#193,#218,#222,.T.);
#224=ORIENTED_EDGE('',*,*,#223,.F.);
#225=ORIENTED_EDGE('',*,*,#198,.T.);
#226=ORIENTED_EDGE('',*,*,#137,.F.);
#227=CARTESIAN_POINT('',(1.40921617011966,3.000000000000001,0.513916127274946));
#228=DIRECTION('',(-1.0,0.0,0.0));
#229=VECTOR('',#228,1.40921617011966);
#230=LINE('',#227,#229);
#231=EDGE_CURVE('',#218,#124,#230,.T.);
#232=ORIENTED_EDGE('',*,*,#231,.F.);
#233=EDGE_LOOP('',(#224,#225,#226,#232));
#234=FACE_OUTER_BOUND('',#233,.T.);
#235=ADVANCED_FACE('',(#234),#216,.F.);
#236=CARTESIAN_POINT('',(1.0,3.000000000000001,0.513916127274946));
#237=DIRECTION('',(0.0,1.0,0.0));
#238=DIRECTION('',(0.0,0.0,1.0));
#239=AXIS2_PLACEMENT_3D('',#236,#237,#238);
#240=PLANE('',#239);
#241=CARTESIAN_POINT('',(0.0,3.0,0.0));
#242=DIRECTION('',(0.0,-1.0,0.0));
#243=DIRECTION('',(1.0,0.0,0.0));
#244=AXIS2_PLACEMENT_3D('',#241,#242,#243);
#245=CIRCLE('',#244,0.25);
#246=EDGE_CURVE('',#76,#114,#245,.T.);
#247=ORIENTED_EDGE('',*,*,#246,.F.);
#248=ORIENTED_EDGE('',*,*,#103,.F.);
#249=ORIENTED_EDGE('',*,*,#167,.T.);
#250=CARTESIAN_POINT('',(0.0,3.000000000000001,0.0));
#251=DIRECTION('',(0.0,1.0,0.0));
#252=DIRECTION('',(1.0,0.0,0.0));
#253=AXIS2_PLACEMENT_3D('',#250,#251,#252);
#254=CIRCLE('',#253,1.5);
#255=EDGE_CURVE('',#218,#154,#254,.T.);
#256=ORIENTED_EDGE('',*,*,#255,.F.);
#257=ORIENTED_EDGE('',*,*,#231,.T.);
#258=ORIENTED_EDGE('',*,*,#129,.F.);
#259=EDGE_LOOP('',(#247,#248,#249,#256,#257,#258));
#260=FACE_OUTER_BOUND('',#259,.T.);
#261=ADVANCED_FACE('',(#260),#240,.F.);
#262=CARTESIAN_POINT('',(0.0,9.0,0.0));
#263=DIRECTION('',(0.0,1.0,0.0));
#264=DIRECTION('',(-1.0,0.0,0.0));
#265=AXIS2_PLACEMENT_3D('',#262,#263,#264);
#266=CONICAL_SURFACE('',#265,1.0,20.556045219583474);
#267=CARTESIAN_POINT('',(-1.0,9.0,0.0));
#268=VERTEX_POINT('',#267);
#269=CARTESIAN_POINT('',(0.0,9.0,0.0));
#270=DIRECTION('',(0.0,-1.0,0.0));
#271=DIRECTION('',(-1.0,0.0,0.0));
#272=AXIS2_PLACEMENT_3D('',#269,#270,#271);
#273=CIRCLE('',#272,1.0);
#274=EDGE_CURVE('',#268,#268,#273,.T.);
#275=ORIENTED_EDGE('',*,*,#274,.F.);
#276=EDGE_LOOP('',(#275));
#277=FACE_OUTER_BOUND('',#276,.T.);
#278=CARTESIAN_POINT('',(0.25,7.000000000000001,0.0));
#279=VERTEX_POINT('',#278);
#280=CARTESIAN_POINT('',(0.0,7.000000000000001,0.0));
#281=DIRECTION('',(0.0,1.0,0.0));
#282=DIRECTION('',(1.0,0.0,0.0));
#283=AXIS2_PLACEMENT_3D('',#280,#281,#282);
#284=CIRCLE('',#283,0.25);
#285=EDGE_CURVE('',#279,#279,#284,.T.);
#286=ORIENTED_EDGE('',*,*,#285,.F.);
#287=EDGE_LOOP('',(#286));
#288=FACE_BOUND('',#287,.T.);
#289=ADVANCED_FACE('',(#277,#288),#266,.F.);
#290=CARTESIAN_POINT('',(0.0,9.949874371066201,0.0));
#291=DIRECTION('',(0.0,-1.0,0.0));
#292=DIRECTION('',(1.0,0.0,0.0));
#293=AXIS2_PLACEMENT_3D('',#290,#291,#292);
#294=CYLINDRICAL_SURFACE('',#293,0.25);
#295=ORIENTED_EDGE('',*,*,#285,.T.);
#296=EDGE_LOOP('',(#295));
#297=FACE_OUTER_BOUND('',#296,.T.);
#298=ORIENTED_EDGE('',*,*,#81,.T.);
#299=ORIENTED_EDGE('',*,*,#246,.T.);
#300=ORIENTED_EDGE('',*,*,#121,.T.);
#301=ORIENTED_EDGE('',*,*,#189,.T.);
#302=EDGE_LOOP('',(#298,#299,#300,#301));
#303=FACE_BOUND('',#302,.T.);
#304=CARTESIAN_POINT('',(0.25,0.0,0.0));
#305=VERTEX_POINT('',#304);
#306=CARTESIAN_POINT('',(0.0,0.0,0.0));
#307=DIRECTION('',(0.0,1.0,0.0));
#308=DIRECTION('',(1.0,0.0,0.0));
#309=AXIS2_PLACEMENT_3D('',#306,#307,#308);
#310=CIRCLE('',#309,0.25);
#311=EDGE_CURVE('',#305,#305,#310,.T.);
#312=ORIENTED_EDGE('',*,*,#311,.F.);
#313=EDGE_LOOP('',(#312));
#314=FACE_BOUND('',#313,.T.);
#315=ADVANCED_FACE('',(#297,#303,#314),#294,.F.);
#316=CARTESIAN_POINT('',(0.0,0.0,0.0));
#317=DIRECTION('',(0.0,1.0,0.0));
#318=DIRECTION('',(1.0,0.0,0.0));
#319=AXIS2_PLACEMENT_3D('',#316,#317,#318);
#320=CYLINDRICAL_SURFACE('',#319,1.5);
#321=CARTESIAN_POINT('',(-1.5,9.0,1.836970E-016));
#322=VERTEX_POINT('',#321);
#323=CARTESIAN_POINT('',(0.0,9.0,0.0));
#324=DIRECTION('',(0.0,-1.0,0.0));
#325=DIRECTION('',(1.0,0.0,0.0));
#326=AXIS2_PLACEMENT_3D('',#323,#324,#325);
#327=CIRCLE('',#326,1.5);
#328=EDGE_CURVE('',#322,#322,#327,.T.);
#329=ORIENTED_EDGE('',*,*,#328,.T.);
#330=EDGE_LOOP('',(#329));
#331=FACE_OUTER_BOUND('',#330,.T.);
#332=ORIENTED_EDGE('',*,*,#205,.T.);
#333=ORIENTED_EDGE('',*,*,#223,.T.);
#334=ORIENTED_EDGE('',*,*,#255,.T.);
#335=ORIENTED_EDGE('',*,*,#161,.T.);
#336=EDGE_LOOP('',(#332,#333,#334,#335));
#337=FACE_BOUND('',#336,.T.);
#338=CARTESIAN_POINT('',(-1.5,0.0,1.836970E-016));
#339=VERTEX_POINT('',#338);
#340=CARTESIAN_POINT('',(0.0,0.0,0.0));
#341=DIRECTION('',(0.0,-1.0,0.0));
#342=DIRECTION('',(1.0,0.0,0.0));
#343=AXIS2_PLACEMENT_3D('',#340,#341,#342);
#344=CIRCLE('',#343,1.5);
#345=EDGE_CURVE('',#339,#339,#344,.T.);
#346=ORIENTED_EDGE('',*,*,#345,.F.);
#347=EDGE_LOOP('',(#346));
#348=FACE_BOUND('',#347,.T.);
#349=ADVANCED_FACE('',(#331,#337,#348),#320,.T.);
#350=CARTESIAN_POINT('',(0.0,9.0,0.0));
#351=DIRECTION('',(0.0,-1.0,0.0));
#352=DIRECTION('',(0.0,0.0,-1.0));
#353=AXIS2_PLACEMENT_3D('',#350,#351,#352);
#354=PLANE('',#353);
#355=ORIENTED_EDGE('',*,*,#328,.F.);
#356=EDGE_LOOP('',(#355));
#357=FACE_OUTER_BOUND('',#356,.T.);
#358=ORIENTED_EDGE('',*,*,#274,.T.);
#359=EDGE_LOOP('',(#358));
#360=FACE_BOUND('',#359,.T.);
#361=ADVANCED_FACE('',(#357,#360),#354,.F.);
#362=CARTESIAN_POINT('',(0.0,0.0,0.0));
#363=DIRECTION('',(0.0,-1.0,0.0));
#364=DIRECTION('',(0.0,0.0,-1.0));
#365=AXIS2_PLACEMENT_3D('',#362,#363,#364);
#366=PLANE('',#365);
#367=ORIENTED_EDGE('',*,*,#345,.T.);
#368=EDGE_LOOP('',(#367));
#369=FACE_OUTER_BOUND('',#368,.T.);
#370=ORIENTED_EDGE('',*,*,#311,.T.);
#371=EDGE_LOOP('',(#370));
#372=FACE_BOUND('',#371,.T.);
#373=ADVANCED_FACE('',(#369,#372),#366,.T.);
#374=CLOSED_SHELL('',(#107,#147,#178,#211,#235,#261,#289,#315,#349,#361,#373));
#375=MANIFOLD_SOLID_BREP('Solid1',#374);
#376=COLOUR_RGB('Default',0.75,0.75,0.75);
#377=FILL_AREA_STYLE_COLOUR('Default',#376);
#378=FILL_AREA_STYLE('Default',(#377));
#379=SURFACE_STYLE_FILL_AREA(#378);
#380=SURFACE_SIDE_STYLE('Default',(#379));
#381=SURFACE_STYLE_USAGE(.BOTH.,#380);
#382=PRESENTATION_STYLE_ASSIGNMENT((#381));
#383=STYLED_ITEM('',(#382),#375);
#384=MECHANICAL_DESIGN_GEOMETRIC_PRESENTATION_REPRESENTATION('',(#383),#36);
#385=ADVANCED_BREP_SHAPE_REPRESENTATION('ABSR',(#375),#36);
#386=SHAPE_REPRESENTATION_RELATIONSHIP('SRR','None',#385,#41);
ENDSEC;
END-ISO-10303-21;
